[gd_scene load_steps=3 format=2]

[ext_resource path="res://Scripts/Weather/weather_spawner.gd" type="Script" id=1]

[sub_resource type="CircleShape2D" id=1]
radius = 3000.0

[node name="WeatherSpawner" type="Node2D"]
script = ExtResource( 1 )

[node name="TickTimer" type="Timer" parent="."]

[node name="Area2D" type="Area2D" parent="."]
pause_mode = 2
collision_layer = 8
collision_mask = 8

[node name="CollisionShape2D" type="CollisionShape2D" parent="Area2D"]
shape = SubResource( 1 )

[connection signal="area_exited" from="Area2D" to="." method="_on_Area2D_area_exited"]
