[gd_scene load_steps=3 format=2]

[ext_resource path="res://Assets/Fonts/Brokenscript-Bold-CZ.ttf" type="DynamicFontData" id=1]

[sub_resource type="DynamicFont" id=7]
size = 75
outline_size = 5
font_data = ExtResource( 1 )

[node name="Patch" type="Control"]
visible = false
margin_right = 40.0
margin_bottom = 40.0

[node name="Label" type="Label" parent="."]
margin_left = 538.089
margin_top = 163.611
margin_right = 960.089
margin_bottom = 239.611
custom_colors/font_color = Color( 0, 0, 0, 1 )
custom_colors/font_outline_modulate = Color( 1, 0.890196, 0.494118, 1 )
custom_fonts/font = SubResource( 7 )
text = "+ patch.pck"
